<?xml version="1.0" encoding="iso-8859-1"?>

<!DOCTYPE svg PUBLIC "-//W3C//DTD SVG 1.1//EN" "http://www.w3.org/Graphics/SVG/1.1/DTD/svg11.dtd">
<!-- Uploaded to: SVG Repo, www.svgrepo.com, Generator: SVG Repo Mixer Tools -->
<svg version="1.1" id="_x34_" xmlns="http://www.w3.org/2000/svg" xmlns:xlink="http://www.w3.org/1999/xlink" 
	 viewBox="0 0 512 512"  xml:space="preserve">
<g>
	<g>
		<g>
			<path style="fill:#E3D1B0;" d="M27.36,371.832l0.316-1.422c1.167-5.253,6.371-8.565,11.623-7.399l369.989,82.168
				c5.253,1.167,8.565,6.37,7.399,11.623l-0.316,1.422c-1.167,5.253-6.37,8.565-11.623,7.399L34.759,383.455
				C29.506,382.289,26.194,377.085,27.36,371.832z"/>
			<path style="opacity:0.1;fill:#040000;" d="M414.689,457.105L414.689,457.105c1.254-5.646-2.306-11.238-7.952-12.492
				l-28.903-6.419c-1.789,2.974-3.143,6.277-3.936,9.852c-0.794,3.574-0.965,7.14-0.604,10.592l28.903,6.419
				C407.842,466.31,413.435,462.75,414.689,457.105z"/>
			<g>
				<circle style="fill:#C93562;" cx="417.372" cy="457.701" r="27.569"/>
				<path style="opacity:0.06;fill:#040000;" d="M412.279,484.268c-14.864-3.301-24.237-18.026-20.936-32.89
					c1.911-8.605,7.65-15.374,15.033-18.899c-5.567,3.815-9.753,9.655-11.332,16.768c-3.301,14.864,6.072,29.589,20.936,32.89
					c6.252,1.388,12.493,0.531,17.857-2.038C427.757,484.26,420.038,485.991,412.279,484.268z"/>
			</g>
		</g>
		<polygon style="opacity:0.1;fill:#040000;" points="171.558,413.783 232.059,427.219 293.541,419.421 233.04,405.985 		"/>
	</g>
	<g>
		<g>
			<rect x="17.348" y="79.179" style="fill:#978660;" width="487.834" height="40.974"/>
			<rect x="6.076" y="236.149" style="fill:#978660;" width="487.789" height="41.003"/>
		</g>
		<path style="fill:#D5312E;" d="M73.509,17.348v321.174c0,0.606,0,1.214-0.067,1.821c-0.473,9.181-8.1,16.607-17.483,16.607H17.55
			c-0.945,0-1.822-0.068-2.7-0.203c-7.493-1.216-13.5-7.156-14.648-14.647C0.068,341.221,0,340.343,0,339.399V18.227
			C0,8.573,7.898,0.676,17.55,0.676h38.408c0.878,0,1.688,0.068,2.565,0.203c7.56,1.079,13.568,7.019,14.783,14.58
			c0,0.27,0.068,0.473,0.135,0.743C73.509,16.539,73.509,16.943,73.509,17.348z"/>
		<path style="fill:#D65846;" d="M161.194,29.769v296.399c0,0.608,0,1.215-0.068,1.823c-0.473,9.247-8.1,16.538-17.416,16.538
			h-38.476c-9.653,0-17.483-7.83-17.483-17.482V30.579c0-9.652,7.83-17.484,17.483-17.484h38.476c0.878,0,1.755,0.069,2.565,0.204
			c7.425,1.079,13.365,6.884,14.648,14.242c0.068,0.405,0.135,0.811,0.203,1.282C161.194,29.094,161.194,29.431,161.194,29.769z"/>
		<path style="fill:#F5E02E;" d="M248.879,38.746v279.323c0,9.652-7.83,17.482-17.483,17.482H192.92
			c-9.653,0-17.483-7.83-17.483-17.482V39.557c0-9.652,7.83-17.484,17.483-17.484h38.476c0.878,0,1.755,0.067,2.565,0.203
			c7.425,1.079,13.298,6.818,14.648,14.176c0.067,0.404,0.135,0.877,0.202,1.282C248.879,38.072,248.879,38.408,248.879,38.746z"/>
		<path style="fill:#6EBB55;" d="M336.563,47.657v260.557c0,0.606,0,1.214-0.068,1.823c-0.473,9.247-8.1,16.538-17.415,16.538
			h-38.408c-9.72,0-17.551-7.83-17.551-17.484V48.533c0-9.652,7.83-17.482,17.551-17.482h38.408c0.877,0,1.755,0.068,2.632,0.203
			c7.425,1.079,13.298,6.885,14.581,14.242c0.068,0.405,0.135,0.811,0.202,1.284C336.563,47.05,336.563,47.386,336.563,47.657z"/>
		<path style="fill:#70C193;" d="M424.315,55.353v245.165c0,0.608,0,1.216-0.068,1.823c-0.473,9.249-8.1,16.538-17.483,16.538
			h-38.408c-9.653,0-17.551-7.83-17.551-17.482V56.229c0-9.652,7.898-17.484,17.551-17.484h38.408c0.878,0,1.755,0.068,2.632,0.203
			c7.29,1.081,13.095,6.615,14.581,13.771c0.068,0.541,0.202,1.147,0.27,1.755C424.315,54.745,424.315,55.082,424.315,55.353z"/>
		<path style="fill:#9CD6E0;" d="M512,65.544v225.727c0,0.539,0,1.079-0.068,1.62c-0.405,8.303-7.222,14.918-15.66,14.918h-42.054
			c-8.64,0-15.66-7.02-15.66-15.728V65.544c0-8.708,7.02-15.727,15.66-15.727h42.054c0.337,0,0.607,0,0.945,0.068
			c0.068-0.068,0.068-0.068,0.135,0c7.695,0.471,13.77,6.48,14.58,14.041V64.6C512,64.937,512,65.208,512,65.544z"/>
		<g>
			<path style="opacity:0.1;fill:#040000;" d="M73.509,17.348v321.174c0,0.606,0,1.214-0.067,1.821
				c-0.945,8.843-8.37,15.728-17.483,15.728H17.55c-1.35,0-2.632-0.135-3.915-0.54c-6.345-1.348-11.341-6.21-13.028-12.419
				c0.203,0,0.473,0.068,0.675,0.068c0.607,0,1.147,0.068,1.755,0.068h38.408c9.72,0,17.483-7.831,17.483-17.484V4.522
				c0-1.215-0.135-2.429-0.405-3.644c0-0.27-0.068-0.608-0.135-0.878c7.763,1.081,13.906,7.223,14.918,14.987
				c0.068,0.404,0.135,0.809,0.135,1.215C73.509,16.539,73.509,16.943,73.509,17.348z"/>
			<path style="opacity:0.1;fill:#040000;" d="M161.194,29.769v296.399c0,0.608,0,1.215-0.068,1.823
				c-0.945,8.776-8.37,15.661-17.416,15.661h-38.476c-8.1,0-14.918-5.468-16.875-12.961c0.743,0.135,1.553,0.203,2.363,0.203h38.408
				c9.72,0,17.55-7.897,17.55-17.551V16.943c0-1.215-0.135-2.497-0.405-3.644c-0.068-0.34-0.135-0.608-0.202-0.878
				c7.493,1.012,13.5,6.818,14.85,14.244c0.135,0.674,0.203,1.417,0.203,2.159C161.194,29.094,161.194,29.431,161.194,29.769z"/>
			<path style="opacity:0.1;fill:#040000;" d="M248.879,38.746v279.323c-0.473,9.247-8.1,16.605-17.483,16.605H192.92
				c-8.1,0-14.918-5.468-16.875-12.96c0.742,0.135,1.552,0.201,2.362,0.201h38.476c9.653,0,17.483-7.897,17.483-17.549V25.921
				c0-1.215-0.135-2.497-0.405-3.645c-0.068-0.338-0.135-0.608-0.202-0.944c7.493,1.079,13.5,6.816,14.85,14.174
				c0.135,0.743,0.202,1.485,0.202,2.228C248.879,38.072,248.879,38.408,248.879,38.746z"/>
			<path style="opacity:0.1;fill:#040000;" d="M336.563,47.657v260.557c0,0.606,0,1.214-0.068,1.823
				c-0.945,8.774-8.37,15.727-17.415,15.727h-38.476c-8.033,0-14.85-5.536-16.875-13.027c0.81,0.135,1.552,0.203,2.362,0.203h38.476
				c9.653,0,17.483-7.83,17.483-17.551V34.898c0-1.282-0.135-2.497-0.338-3.644c-0.068-0.338-0.135-0.608-0.202-0.946
				c7.493,1.081,13.5,6.885,14.783,14.244c0.135,0.742,0.202,1.485,0.202,2.228C336.563,47.05,336.563,47.386,336.563,47.657z"/>
			<path style="opacity:0.1;fill:#040000;" d="M424.315,55.353v245.165c0,0.608,0,1.216-0.068,1.823
				c-0.945,8.843-8.37,15.728-17.483,15.728h-38.408c-8.1,0-14.918-5.536-16.943-13.029c0.81,0.135,1.62,0.204,2.43,0.204h38.408
				c9.653,0,17.551-7.831,17.551-17.551V42.526c0-1.215-0.135-2.431-0.405-3.578c-0.067-0.336-0.135-0.607-0.202-0.944
				c7.493,1.012,13.433,6.818,14.783,14.174c0.135,0.743,0.27,1.486,0.27,2.296C424.315,54.745,424.315,55.082,424.315,55.353z"/>
			<path style="opacity:0.1;fill:#040000;" d="M511.997,64.661v226.581c0,8.675-7.022,15.697-15.697,15.697h-42.067
				c-7.701,0-14.095-5.523-15.427-12.839c0.295,0.013,0.59,0.026,0.897,0.026h42.079c8.662,0,15.697-7.022,15.697-15.697V51.848
				c0-0.974-0.09-1.922-0.256-2.844C505.474,49.464,511.997,56.294,511.997,64.661z"/>
			<path style="opacity:0.1;fill:#040000;" d="M73.509,17.348v299.1c-0.203-1.013-0.27-2.025-0.27-3.107V16.943
				c0-0.539,0-1.012,0.068-1.485v-0.471c0.068,0.404,0.135,0.809,0.135,1.215C73.509,16.539,73.509,16.943,73.509,17.348z"/>
			<path style="opacity:0.1;fill:#040000;" d="M161.194,29.769V307.47c-0.203-1.012-0.27-2.025-0.27-3.105V26.664
				c0.135,0.674,0.203,1.417,0.203,2.159C161.194,29.094,161.194,29.431,161.194,29.769z"/>
			<path style="opacity:0.1;fill:#040000;" d="M248.879,38.746V298.56c-0.203-1.012-0.27-2.093-0.27-3.172V35.506
				c0.135,0.743,0.202,1.485,0.202,2.228C248.879,38.072,248.879,38.408,248.879,38.746z"/>
			<path style="opacity:0.1;fill:#040000;" d="M336.563,47.657v243.141c-0.135-0.946-0.27-2.025-0.27-3.105V44.552
				c0.135,0.742,0.202,1.485,0.202,2.228C336.563,47.05,336.563,47.386,336.563,47.657z"/>
			<path style="opacity:0.1;fill:#040000;" d="M424.315,55.353v226.131c-0.202-1.014-0.337-2.025-0.337-3.039V52.179
				c0.135,0.743,0.27,1.486,0.27,2.296C424.315,54.745,424.315,55.082,424.315,55.353z"/>
		</g>
		<g>
			<circle style="fill:#FAF0DA;" cx="36.757" cy="101.287" r="13.241"/>
			<circle style="fill:#FAF0DA;" cx="36.757" cy="260.174" r="13.241"/>
		</g>
		<g>
			<circle style="fill:#FAF0DA;" cx="124.459" cy="101.287" r="13.241"/>
			<circle style="fill:#FAF0DA;" cx="124.459" cy="260.174" r="13.241"/>
		</g>
		<g>
			<circle style="fill:#FAF0DA;" cx="212.16" cy="101.927" r="13.241"/>
			<circle style="fill:#FAF0DA;" cx="212.16" cy="260.815" r="13.241"/>
		</g>
		<g>
			<circle style="fill:#FAF0DA;" cx="299.862" cy="101.287" r="13.241"/>
			<circle style="fill:#FAF0DA;" cx="299.862" cy="260.174" r="13.241"/>
		</g>
		<g>
			<circle style="fill:#FAF0DA;" cx="387.563" cy="101.287" r="13.241"/>
			<circle style="fill:#FAF0DA;" cx="387.563" cy="260.174" r="13.241"/>
		</g>
		<g>
			<circle style="fill:#FAF0DA;" cx="475.264" cy="101.287" r="13.241"/>
			<circle style="fill:#FAF0DA;" cx="475.264" cy="260.174" r="13.241"/>
		</g>
		<g style="opacity:0.3;">
			<g>
				<path style="fill:#837966;" d="M49.992,102.568c0,7.316-5.92,13.236-13.236,13.236c-6.407,0-11.737-4.536-12.967-10.558
					c2.396,3.293,6.292,5.433,10.687,5.433c7.317,0,13.249-5.92,13.249-13.236c0-0.923-0.09-1.807-0.269-2.678
					C49.044,96.956,49.992,99.646,49.992,102.568z"/>
				<path style="fill:#837966;" d="M49.992,261.456c0,7.316-5.92,13.236-13.236,13.236c-6.407,0-11.737-4.536-12.967-10.558
					c2.396,3.293,6.292,5.433,10.687,5.433c7.317,0,13.249-5.92,13.249-13.236c0-0.923-0.09-1.807-0.269-2.678
					C49.044,255.843,49.992,258.534,49.992,261.456z"/>
			</g>
			<g>
				<path style="fill:#837966;" d="M137.701,102.568c0,7.316-5.933,13.236-13.236,13.236c-6.407,0-11.75-4.536-12.98-10.558
					c2.396,3.293,6.304,5.433,10.699,5.433c7.304,0,13.236-5.92,13.236-13.236c0-0.923-0.09-1.807-0.269-2.678
					C136.753,96.956,137.701,99.646,137.701,102.568z"/>
				<path style="fill:#837966;" d="M137.701,261.456c0,7.316-5.933,13.236-13.236,13.236c-6.407,0-11.75-4.536-12.98-10.558
					c2.396,3.293,6.304,5.433,10.699,5.433c7.304,0,13.236-5.92,13.236-13.236c0-0.923-0.09-1.807-0.269-2.678
					C136.753,255.843,137.701,258.534,137.701,261.456z"/>
			</g>
			<g>
				<path style="fill:#837966;" d="M225.397,103.209c0,7.316-5.92,13.236-13.236,13.236c-6.407,0-11.737-4.536-12.967-10.558
					c2.396,3.293,6.292,5.433,10.686,5.433c7.316,0,13.249-5.92,13.249-13.236c0-0.923-0.09-1.807-0.269-2.678
					C224.461,97.596,225.397,100.287,225.397,103.209z"/>
				<path style="fill:#837966;" d="M225.397,262.096c0,7.316-5.92,13.236-13.236,13.236c-6.407,0-11.737-4.536-12.967-10.558
					c2.396,3.293,6.292,5.433,10.686,5.433c7.316,0,13.249-5.92,13.249-13.236c0-0.922-0.09-1.807-0.269-2.678
					C224.461,256.484,225.397,259.175,225.397,262.096z"/>
			</g>
			<g>
				<path style="fill:#837966;" d="M313.105,102.568c0,7.316-5.933,13.236-13.249,13.236c-6.394,0-11.737-4.536-12.967-10.558
					c2.396,3.293,6.304,5.433,10.699,5.433c7.304,0,13.237-5.92,13.237-13.236c0-0.923-0.09-1.807-0.269-2.678
					C312.157,96.956,313.105,99.646,313.105,102.568z"/>
				<path style="fill:#837966;" d="M313.105,261.456c0,7.316-5.933,13.236-13.249,13.236c-6.394,0-11.737-4.536-12.967-10.558
					c2.396,3.293,6.304,5.433,10.699,5.433c7.304,0,13.237-5.92,13.237-13.236c0-0.923-0.09-1.807-0.269-2.678
					C312.157,255.843,313.105,258.534,313.105,261.456z"/>
			</g>
			<g>
				<path style="fill:#837966;" d="M400.801,102.568c0,7.316-5.92,13.236-13.236,13.236c-6.394,0-11.724-4.523-12.954-10.533
					c2.396,3.28,6.279,5.407,10.674,5.407c7.317,0,13.236-5.92,13.236-13.236c0-0.923-0.09-1.832-0.282-2.704
					C399.853,96.93,400.801,99.634,400.801,102.568z"/>
				<path style="fill:#837966;" d="M400.801,261.456c0,7.316-5.92,13.236-13.236,13.236c-6.394,0-11.724-4.523-12.954-10.533
					c2.396,3.28,6.279,5.407,10.674,5.407c7.317,0,13.236-5.92,13.236-13.236c0-0.923-0.09-1.832-0.282-2.704
					C399.853,255.818,400.801,258.521,400.801,261.456z"/>
			</g>
			<g>
				<path style="fill:#837966;" d="M488.509,102.568c0,7.316-5.932,13.236-13.249,13.236c-6.394,0-11.737-4.536-12.967-10.558
					c2.396,3.293,6.304,5.433,10.699,5.433c7.304,0,13.236-5.92,13.236-13.236c0-0.923-0.09-1.807-0.269-2.678
					C487.561,96.956,488.509,99.646,488.509,102.568z"/>
				<path style="fill:#837966;" d="M488.509,261.456c0,7.316-5.932,13.236-13.249,13.236c-6.394,0-11.737-4.536-12.967-10.558
					c2.396,3.293,6.304,5.433,10.699,5.433c7.304,0,13.236-5.92,13.236-13.236c0-0.923-0.09-1.807-0.269-2.678
					C487.561,255.843,488.509,258.534,488.509,261.456z"/>
			</g>
		</g>
	</g>
	<g>
		<path style="fill:#E3D1B0;" d="M40.756,429.347l-0.183-1.445c-0.677-5.338,3.101-10.214,8.439-10.891l375.991-47.689
			c5.338-0.677,10.214,3.101,10.891,8.439l0.183,1.445c0.677,5.338-3.101,10.214-8.439,10.891L51.647,437.786
			C46.309,438.463,41.433,434.685,40.756,429.347z"/>
		<path style="opacity:0.1;fill:#040000;" d="M434.116,378.721L434.116,378.721c-0.728-5.737-5.968-9.798-11.705-9.07l-29.372,3.725
			c-0.678,3.404-0.836,6.97-0.376,10.603c0.461,3.632,1.504,7.047,3.011,10.173l29.372-3.725
			C430.782,389.699,434.843,384.458,434.116,378.721z"/>
		<g>
			<circle style="fill:#C93562;" cx="436.843" cy="378.375" r="27.569"/>
			<path style="opacity:0.06;fill:#040000;" d="M441.027,405.101c-15.105,1.916-28.903-8.776-30.818-23.881
				c-1.109-8.744,2.005-17.055,7.763-22.867c-3.951,5.471-5.917,12.383-5,19.611c1.916,15.105,15.714,25.797,30.819,23.881
				c6.353-0.806,11.938-3.722,16.118-7.952C455.591,399.864,448.911,404.101,441.027,405.101z"/>
		</g>
	</g>
</g>
</svg>